<?xml version="1.0" encoding="utf-8"?>
<!-- Generator: Adobe Illustrator 19.0.0, SVG Export Plug-In . SVG Version: 6.00 Build 0)  -->
<svg version="1.1" id="Layer_1" xmlns="http://www.w3.org/2000/svg" xmlns:xlink="http://www.w3.org/1999/xlink" x="0px" y="0px"
	 width="205px" height="205px" viewBox="0 0 205 205" style="enable-background:new 0 0 205 205;" xml:space="preserve">
<style type="text/css">
	.st0{fill:#EFF5F7;stroke:#2561A3;stroke-width:2;stroke-miterlimit:10;}
	.st1{fill:#D2E7EF;}
	.st2{fill:#F6C430;}
	.st3{fill:#2561A3;}
	.st4{fill:#EDA029;}
	.st5{fill:#2562A4;}
	.st6{fill:#F2732A;}
</style>
<g id="XMLID_4_">
	<path id="XMLID_25_" class="st0" d="M198.4,204H6.6c-3.1,0-5.6-2.5-5.6-5.6V6.6C1,3.5,3.5,1,6.6,1h191.8c3.1,0,5.6,2.5,5.6,5.6
		v191.8C204,201.5,201.5,204,198.4,204z"/>
	<path id="XMLID_3_" class="st1" d="M197.9,6.5L5.7,198.9c1.1,1.2,2.7,2,4.4,2h184.7c3.2,0,5.4-2.8,5.4-6V11.2
		C200.1,9.5,199.1,7.3,197.9,6.5z"/>
	<path id="XMLID_2_" class="st2" d="M200.1,36.9V11.7c0-4.3-2.3-5.9-5.9-5.9H10.5c-3.6,0-5.3,1.6-5.3,5.9v25.1H200.1z"/>
	<g>
		<circle id="XMLID_24_" class="st3" cx="51.3" cy="22" r="7.7"/>
		<circle id="XMLID_23_" class="st3" cx="77.2" cy="22" r="7.7"/>
		<circle id="XMLID_22_" class="st3" cx="25.3" cy="22" r="7.7"/>
	</g>
	<path id="XMLID_1_" class="st4" d="M197.9,6.4l-30.5,30.5h32.7V11.7C200.1,9.4,199.6,7.5,197.9,6.4z"/>
	<g>
		<path class="st5" d="M20.8,116.9c10.3,0,11.7-5.6,11.7-10.7c0-4.1-0.6-8.1-1.2-12.2c-0.6-4.1-1.2-8.1-1.2-12
			c0-13.3,8.8-19,21.1-19h2.9v8h-2.5c-8.5,0.1-11.6,4.6-11.6,12.4c0,3.3,0.6,6.8,1,10.3c0.6,3.6,1.2,7.1,1.2,11
			c0.1,9.3-4.1,13.9-10.4,15.6v0.3c6.4,1.6,10.6,6.5,10.4,15.8c0,3.9-0.6,7.5-1.2,11.1c-0.4,3.5-1,6.9-1,10.4
			c0,8.1,3.5,12.4,11.6,12.6h2.5v8h-3c-11.9,0-21-5.2-21-19.8c0-3.9,0.6-8,1.3-11.9c0.4-4.1,1-8,1-11.7c0-4.6-1.4-10.9-11.7-10.9
			V116.9z"/>
	</g>
	<g>
		<path class="st5" d="M184.4,124.3c-10.3,0-11.7,6.2-11.7,10.9c0,3.8,0.6,7.7,1,11.7c0.7,3.9,1.3,8,1.3,11.9
			c0,14.6-9.1,19.8-21,19.8h-3v-8h2.5c8.1-0.1,11.6-4.5,11.6-12.6c0-3.5-0.6-6.9-1-10.4c-0.6-3.6-1.2-7.2-1.2-11.1
			c-0.1-9.3,4.1-14.2,10.4-15.8v-0.3c-6.4-1.7-10.6-6.4-10.4-15.6c0-3.9,0.6-7.4,1.2-11c0.4-3.5,1-6.9,1-10.3
			c0-7.8-3-12.3-11.6-12.4h-2.5v-8h2.9c12.3,0,21.1,5.6,21.1,19c0,3.9-0.6,8-1.2,12c-0.6,4.1-1.2,8.1-1.2,12.2
			c0,5.1,1.4,10.7,11.7,10.7V124.3z"/>
	</g>
	<path class="st6" d="M147.2,131.1c0,1.2-0.1,2.3-0.4,3.4c-1.6,8.5-6.4,14.7-14.2,18.2c-8.5,3.8-16.9,2.8-24.9-1.8
		c-0.2-0.1-0.5-0.3-0.7-0.4c0,0-0.1,0-0.2,0c-0.1,0.1-0.3,0.3-0.5,0.4c-3,3-6,6-9,9c-0.4,0.4-0.5,0.7-0.4,1.2c1.1,5.1-2.9,9.7-8,9.5
		c-4-0.2-7.1-3.5-7.3-7.5c-0.2-3.9,2.7-7.5,6.7-7.9c1.1-0.1,2.3,0.1,3.4,0.2c0.3,0,0.6,0,0.8-0.2c3.1-3,6.1-6.1,9.1-9.1
		c0.1-0.1,0.1-0.2,0.2-0.3c-4-5-5.5-10.8-5.1-17c0.3-6.4,3-11.6,7.6-16.1c-0.3-0.2-0.6-0.4-0.8-0.6c-9.3-6.7-18.5-13.4-27.8-20
		c-0.7-0.5-1.4-1-2.1-1.6c-0.4-0.3-0.6-0.3-1.1-0.1c-6.1,3.1-13.1-0.2-14.6-6.9c-1.2-5.5,2.8-11.2,8.3-11.9c0.2,0,1.8-0.1,2.4-0.1
		c0.5,0,0.8,0.1,1.2,0.2c5.5,1.1,9,6.7,7.8,11.9c-0.1,0.4-0.1,0.7,0.3,1c10.5,8,21,15.9,31.5,23.9c0.4,0.3,0.6,0.3,1.1,0.1
		c1.6-0.6,3.2-1.2,4.9-1.8c0.9-0.3,1.8-0.4,2.7-0.6c0-0.2,0-0.3,0-0.4c0-3.5,0-7.1,0-10.6c0-0.7-0.2-1.1-0.8-1.5
		c-3.9-2.2-5.5-6.8-4-11c1.5-4.1,5.9-6.6,10.2-5.8c3.8,0.7,6.7,3.8,7.3,7.7c0.6,3.6-1.3,7.4-4.7,9.2c-0.5,0.3-0.7,0.6-0.7,1.1
		c0,3.5,0,7,0,10.4c0,0.7,0.3,0.9,0.9,1c1.6,0.4,3.3,0.7,4.9,1.4c8.4,3.5,13.7,9.7,15.5,18.8c0.3,1.1,0.4,2.3,0.4,3.6
		C147.2,130.3,147.2,130.7,147.2,131.1z M121.9,116.9c-7.3,0-13.5,6.4-13.6,14c0,6.8,6.5,13.2,13.6,13.2c6.8,0,13.4-6.6,13.5-13.4
		C135.3,123,129.4,116.9,121.9,116.9z"/>
</g>
</svg>
