<?xml version="1.0" encoding="utf-8"?>
<!-- Generator: Adobe Illustrator 19.0.0, SVG Export Plug-In . SVG Version: 6.00 Build 0)  -->
<svg version="1.1" id="Layer_1" xmlns="http://www.w3.org/2000/svg" xmlns:xlink="http://www.w3.org/1999/xlink" x="0px" y="0px"
	 width="310.2px" height="220.4px" viewBox="0 0 310.2 220.4" style="enable-background:new 0 0 310.2 220.4;" xml:space="preserve"
	>
<style type="text/css">
	.st0{fill:#D3EEF8;}
	.st1{fill:#21B1DC;stroke:#059FCE;stroke-miterlimit:10;}
	.st2{fill:none;stroke:#17BEE5;stroke-miterlimit:10;}
	.st3{fill:#8DD6ED;}
	.st4{fill:none;stroke:#00AEEF;stroke-miterlimit:10;}
	.st5{fill:#3EBDE9;stroke:#2A95D2;stroke-miterlimit:10;}
	.st6{fill:none;stroke:#76B3E2;stroke-miterlimit:10;}
	.st7{fill:none;stroke:#2BB5E4;stroke-miterlimit:10;}
	.st8{fill:#4EC4E8;stroke:#4EC4E8;stroke-miterlimit:10;}
	.st9{fill:#4DA9DE;stroke:#0FA9D7;stroke-miterlimit:10;}
</style>
<g id="XMLID_1_">
	<path id="XMLID_17_" class="st0" d="M138.8,219.9c18.5-1,42.8-8.4,58.4-11.9c10.5-2.3,33.8-3.8,48.8-11.2
		c3.5-1.7,36-28.2,10.6-66.2c-21.8-32.5,18.7-71.5,8.3-104.3c-9.9-31-42.1-19.4-55.8-9.3c-14.7,10.8-19.8,20.9-53.4,27.1
		C119.2,50.9,38.3,71,25.3,85c-12.7,13.7-10.9,34,16,42.8s54.9,24.4,44.6,48.2s-13.5,37.9,8.4,41.6S128,220.5,138.8,219.9z"/>
	<g id="XMLID_2_">
		<circle id="XMLID_11_" class="st1" cx="155" cy="3.1" r="2.6"/>
		<circle id="XMLID_10_" class="st2" cx="3.3" cy="203" r="2.8"/>
		<circle id="XMLID_9_" class="st3" cx="7.9" cy="97.5" r="4.6"/>
		<circle id="XMLID_8_" class="st4" cx="277.5" cy="30.3" r="3.1"/>
		<circle id="XMLID_7_" class="st5" cx="294.3" cy="145.1" r="2.6"/>
		<circle id="XMLID_6_" class="st6" cx="308.2" cy="194.7" r="1.5"/>
		<circle id="XMLID_5_" class="st7" cx="274.1" cy="81.3" r="1.5"/>
		<circle id="XMLID_4_" class="st8" cx="68.9" cy="34.9" r="2.8"/>
		<circle id="XMLID_3_" class="st9" cx="19.4" cy="155.7" r="2.8"/>
	</g>
</g>
</svg>
