<?xml version="1.0" encoding="utf-8"?>
<!-- Generator: Adobe Illustrator 19.0.0, SVG Export Plug-In . SVG Version: 6.00 Build 0)  -->
<svg version="1.1" id="Layer_1" xmlns="http://www.w3.org/2000/svg" xmlns:xlink="http://www.w3.org/1999/xlink" x="0px" y="0px"
	 width="131px" height="131px" viewBox="0 0 131 131" style="enable-background:new 0 0 131 131;" xml:space="preserve">
<style type="text/css">
	.st0{fill:#EF642C;stroke:#EE642C;stroke-miterlimit:10;}
	.st1{fill:none;stroke:#EE642C;stroke-width:8;stroke-miterlimit:10;}
</style>
<g>
	<g>
		<path class="st0" d="M87.9,83.8c-4.4,4.7-9.4,8.6-16.4,8.4c-4.7-0.1-9.5-0.6-14.2-0.9c-1.5-0.1-3,0-4.5,0.1
			c-2.8,0.3-5.1,1.3-7.1,3.4c-1.6,1.7-3.6,3.1-5.6,4.3c-3.2,2-6.5,1-8.5-2.3c-1.3-2.2-1.6-4.4-0.2-6.6c1.3-2,2.6-4,4.1-5.8
			c2-2.5,3.3-5.3,3.3-8.4c0-3.3-0.1-6.5-0.5-9.8c-0.9-9.3,1.9-17.1,8.9-23.1C60.7,56.6,74.2,70.1,87.9,83.8z"/>
		<path class="st0" d="M65.1,53.4c-2.5-2.7-5-5.3-7.4-8c0.3-0.3,0.5-0.6,0.8-0.8c4.3-4,8.7-8.1,13-12.1c2.4-2.2,4.5-2,6.8,0.2
			c3.4,3.3,3.4,5.7-0.3,8.9c-4,3.5-7.9,7.3-11.8,10.9C65.8,52.7,65.5,53,65.1,53.4z"/>
		<path class="st0" d="M77.2,65c4.9-4.6,9.7-9.1,14.5-13.5c1.7-1.5,3.9-1.4,5.5,0.2c0.8,0.7,1.5,1.5,2.2,2.4c1.3,1.6,1.4,3.8,0,5.2
			c-4.8,4.6-9.7,9.2-14.6,13.8C82.3,70.4,79.8,67.8,77.2,65z"/>
	</g>
	<circle class="st1" cx="65.5" cy="65.5" r="61.5"/>
</g>
</svg>
